{"data":[{"coordinates":{"latitude":-34.454,"longitude":-58.908},"displayLocation":"Pilar","priceTypeData":{"type":"FIXED","displayPriceType":"Fixed Price"},"additionalLocation":null,"seo":null,"description":"ESTA SEMANA: CON LA COMPRA DE TU AUTO EN CUOTAS TE LLEVAS UN SMART TV DE REGALO!! AUTONORTE PILAR VENDE MITSUBISHI MONTERO IO 1.8 4X4 2000 $179.000.- (FINANCIADO) El estado de la camioneta es increíble, funciona el aire, el 4x4, y todo el equipamiento! Sin golpes ni detalles, el interior parece 2013","neighborhood":null,"imagesCount":6,"imageColor":"#9955FF","isFeatured":false,"price":{"amount":179000,"displayPrice":"$179.000","preCurrency":"$","postCurrency":""},"mediumImage":"https://images01.olx-st.com/ui/51/67/45/85/m_1487687872_193243718e436ebc45c3464b28372366.jpg","imageWidth":3264,"slug":"//pilar.olx.com.ar/mitsubishi-montero-io-1-8-4x4-iid-927820591","highlighted":false,"paidBumpUp":false,"thumbnail":"https://images01.olx-st.com/ui/51/67/45/85/t_1487687872_193243718e436ebc45c3464b28372366.jpg","id":927820591,"condition":"used","date":{"year":2017,"month":3,"day":30,"hour":16,"minute":34,"second":23,"timestamp":"2017-03-30T16:34:23","timezone":"Z"},"simplifiedCategory":"","fullImage":"https://images01.olx-st.com/ui/51/67/45/85/o_1487687872_193243718e436ebc45c3464b28372366.jpg","isSold":false,"titleCustom":"Mitsubishi Montero\n2000 - 150.000 km","category":{"id":378,"parentId":362},"optionals":[{"name":"year","label":"Año","value":"2000"},{"name":"model","label":"Modelo","value":"Montero"},{"name":"make","label":"Marca","value":"Mitsubishi"},{"name":"mileage","label":"Kilometraje","options":{"unit":"km"},"value":"150.000"}],"title":"Mitsubishi Montero io 1.8 4x4","imageHeight":1836,"sold":false,"distance":null},{"coordinates":{"latitude":-34.508,"longitude":-58.489},"displayLocation":"Vicente López","priceTypeData":{"type":"FIXED","displayPriceType":"Fixed Price"},"additionalLocation":null,"seo":null,"description":"- AÑO: 2015 - USO: Minimo - ESTADO FUNCIONAL: Perfecto - ESTADO FISICO: Perfecto - ACCESORIOS: Case / Cargador / Cable USB-Thunderbolt","neighborhood":null,"imagesCount":3,"imageColor":"#EEFFCC","isFeatured":false,"price":{"amount":7799,"displayPrice":"$7.799","preCurrency":"$","postCurrency":""},"mediumImage":"https://images01.olx-st.com/ui/53/02/70/83/m_1487684685_0203fb21c3eedd9eb5044c452c5db4d3.jpg","imageWidth":1000,"slug":"//vicentelopez.olx.com.ar/apple-ipad-2-tablet-ios-7-16gb-wifi-con-case-iid-927809562","highlighted":false,"paidBumpUp":false,"thumbnail":"https://images01.olx-st.com/ui/53/02/70/83/t_1487684685_0203fb21c3eedd9eb5044c452c5db4d3.jpg","id":927809562,"condition":null,"date":{"year":2017,"month":3,"day":30,"hour":10,"minute":22,"second":10,"timestamp":"2017-03-30T10:22:10","timezone":"Z"},"simplifiedCategory":"","fullImage":"https://images01.olx-st.com/ui/53/02/70/83/o_1487684685_0203fb21c3eedd9eb5044c452c5db4d3.jpg","isSold":false,"titleCustom":"","category":{"id":857,"parentId":830},"optionals":[],"title":"Apple Ipad 2 Tablet , iOS 7,16gb, Wifi, con Case","imageHeight":1334,"sold":false,"distance":null},{"coordinates":{"latitude":-31.415,"longitude":-64.179},"displayLocation":"Córdoba","priceTypeData":{"type":"FIXED","displayPriceType":"Fixed Price"},"additionalLocation":null,"seo":null,"description":"Mesa de Vidrio Templado de 10mm Incoloro con bordes pulido. Base de Caño estructural de 10 x 10cm pintado epoxi horneado en color negro, blanco, pulido, rayado o efecto oxido. Medidas: 1.40 x 1.40m El tiempo de entrega es de 15 dias. Para más diseño visitanos en nuestra Fanpage. Thinks Diseña tu esp","neighborhood":null,"imagesCount":1,"imageColor":"#BBDDEE","isFeatured":false,"price":{"amount":10400,"displayPrice":"$10.400","preCurrency":"$","postCurrency":""},"mediumImage":"https://images01.olx-st.com/ui/50/21/98/32/m_1486438263_b96f66e42f78a707c9812e7b5721ba5e.jpg","imageWidth":740,"slug":"//cordobacapital.olx.com.ar/mesa-de-comedor-ios-iid-925451135","highlighted":false,"paidBumpUp":false,"thumbnail":"https://images01.olx-st.com/ui/50/21/98/32/t_1486438263_b96f66e42f78a707c9812e7b5721ba5e.jpg","id":925451135,"condition":null,"date":{"year":2017,"month":3,"day":11,"hour":20,"minute":32,"second":52,"timestamp":"2017-03-11T20:32:52","timezone":"Z"},"simplifiedCategory":"","fullImage":"https://images01.olx-st.com/ui/50/21/98/32/o_1486438263_b96f66e42f78a707c9812e7b5721ba5e.jpg","isSold":false,"titleCustom":"","category":{"id":807,"parentId":806},"optionals":[],"title":"Mesa de Comedor IOS","imageHeight":491,"sold":false,"distance":null},{"coordinates":{"latitude":-27.469,"longitude":-58.831},"displayLocation":"Corrientes","priceTypeData":{"type":"FIXED","displayPriceType":"Fixed Price"},"additionalLocation":null,"seo":null,"description":"Lente de realidad virtual KGI-008","neighborhood":null,"imagesCount":3,"imageColor":"#FFFFCC","isFeatured":false,"price":{"amount":300,"displayPrice":"$300","preCurrency":"$","postCurrency":""},"mediumImage":"https://images01.olx-st.com/ui/54/85/85/60/m_1485260525_e7eae92c74c07a1585e53df5da05b559.jpg","imageWidth":1000,"slug":"//corrientescapital.olx.com.ar/anteojos-de-realidad-virtual-kolke-kgi008-android-y-ios-iid-923202795","highlighted":false,"paidBumpUp":false,"thumbnail":"https://images01.olx-st.com/ui/54/85/85/60/t_1485260525_e7eae92c74c07a1585e53df5da05b559.jpg","id":923202795,"condition":null,"date":{"year":2017,"month":3,"day":28,"hour":9,"minute":9,"second":0,"timestamp":"2017-03-28T09:09:00","timezone":"Z"},"simplifiedCategory":"","fullImage":"https://images01.olx-st.com/ui/54/85/85/60/o_1485260525_e7eae92c74c07a1585e53df5da05b559.jpg","isSold":false,"titleCustom":"","category":{"id":804,"parentId":800},"optionals":[],"title":"Anteojos De Realidad Virtual Kolke KGI008 Android y iOS","imageHeight":682,"sold":false,"distance":null},{"coordinates":{"latitude":-38.718,"longitude":-62.266},"displayLocation":"Bahía Blanca","priceTypeData":{"type":"FIXED","displayPriceType":"Fixed Price"},"additionalLocation":null,"seo":null,"description":"OPORTUNIDAD 20hs. DE USO, COMO NUEVA!! NUMARK DJ IO, INTERFACE DE SONIDO PARA PC, USB, MIC, HEADPHONES","neighborhood":null,"imagesCount":3,"imageColor":"#FFEEEE","isFeatured":false,"price":{"amount":1799,"displayPrice":"$1.799","preCurrency":"$","postCurrency":""},"mediumImage":"https://images01.olx-st.com/ui/57/23/44/56/m_1484602433_c72aa9ccd475200f5acb8bb3ec149655.jpg","imageWidth":4750,"slug":"//bahiablanca.olx.com.ar/placa-numark-dj-io-interface-djio-audio-virtual-dj-iid-922031111","highlighted":false,"paidBumpUp":false,"thumbnail":"https://images01.olx-st.com/ui/57/23/44/56/t_1484602433_c72aa9ccd475200f5acb8bb3ec149655.jpg","id":922031111,"condition":null,"date":{"year":2017,"month":3,"day":7,"hour":13,"minute":46,"second":59,"timestamp":"2017-03-07T13:46:59","timezone":"Z"},"simplifiedCategory":"","fullImage":"https://images01.olx-st.com/ui/57/23/44/56/o_1484602433_c72aa9ccd475200f5acb8bb3ec149655.jpg","isSold":false,"titleCustom":"","category":{"id":805,"parentId":800},"optionals":[],"title":"Placa Numark Dj Io Interface Djio Audio Virtual Dj","imageHeight":3751,"sold":false,"distance":null},{"coordinates":{"latitude":-34.605,"longitude":-58.403},"displayLocation":"Capital Federal","priceTypeData":{"type":"FIXED","displayPriceType":"Fixed Price"},"additionalLocation":null,"seo":null,"description":"El RWatch M26 es un smartwatch bluetooth que nos permitirá hacer de manera muy sencilla tareas como recibir notificaciones de whatsapp, controlar el reproductor de música de nuestro teléfono o realizar llamadas entre otras. Tiene un diseño más deportivo que otros modelos que hemos conocido, con un t","neighborhood":null,"imagesCount":4,"imageColor":"#A5CFC9","isFeatured":false,"price":{"amount":540,"displayPrice":"$540","preCurrency":"$","postCurrency":""},"mediumImage":"https://images01.olx-st.com/ui/52/56/47/20/m_1484235863_df33a6ea9ba1886919195b51bca5777d.jpg","imageWidth":700,"slug":"//capitalfederal.olx.com.ar/smartwatch-m26-reloj-inteligente-bluetooth-android-ios-iid-921403410","highlighted":false,"paidBumpUp":false,"thumbnail":"https://images01.olx-st.com/ui/52/56/47/20/t_1484235863_df33a6ea9ba1886919195b51bca5777d.jpg","id":921403410,"condition":null,"date":{"year":2017,"month":3,"day":29,"hour":9,"minute":48,"second":21,"timestamp":"2017-03-29T09:48:21","timezone":"Z"},"simplifiedCategory":"","fullImage":"https://images01.olx-st.com/ui/52/56/47/20/o_1484235863_df33a6ea9ba1886919195b51bca5777d.jpg","isSold":false,"titleCustom":"","category":{"id":832,"parentId":830},"optionals":[],"title":"Smartwatch M26 Reloj Inteligente Bluetooth, Android, Ios","imageHeight":402,"sold":false,"distance":null},{"coordinates":{"latitude":-34.58605,"longitude":-58.61247},"displayLocation":"Caseros","priceTypeData":{"type":"FIXED","displayPriceType":"Fixed Price"},"additionalLocation":null,"seo":null,"description":"Compatible iOs y Android, funciona con cualquier equipo con conexion RCA audio y video. Mira en pantalla lo que ves es tu teléfono !!!!","neighborhood":null,"imagesCount":2,"imageColor":"#FFAA66","isFeatured":false,"price":{"amount":3800,"displayPrice":"$3.800","preCurrency":"$","postCurrency":""},"mediumImage":"https://images01.olx-st.com/ui/54/75/78/97/m_1484103451_228c633cd7582505dd5d8ae9e1a4df99.jpg","imageWidth":1024,"slug":"//caseros.olx.com.ar/mirrorlink-android-ios-iid-921171738","highlighted":false,"paidBumpUp":false,"thumbnail":"https://images01.olx-st.com/ui/54/75/78/97/t_1484103451_228c633cd7582505dd5d8ae9e1a4df99.jpg","id":921171738,"condition":null,"date":{"year":2017,"month":1,"day":11,"hour":0,"minute":0,"second":7,"timestamp":"2017-01-11T00:00:07","timezone":"Z"},"simplifiedCategory":"house","fullImage":"https://images01.olx-st.com/ui/54/75/78/97/o_1484103451_228c633cd7582505dd5d8ae9e1a4df99.jpg","isSold":false,"titleCustom":"","category":{"id":377,"parentId":362},"optionals":[{"name":"flo","label":"","value":"opt-831-others"}],"title":"Mirrorlink Android / IOS","imageHeight":768,"sold":false,"distance":null},{"coordinates":{"latitude":-31.353,"longitude":-64.18},"displayLocation":"Córdoba","priceTypeData":{"type":"FIXED","displayPriceType":"Fixed Price"},"additionalLocation":null,"seo":null,"description":"Ideal para juegos de Celular Soporta Android Bluetooth 3 Modos Gamepad (android y pc), Media/Mouse (android), ICADE (Iphone/Ipad) Botones A, B, X, Y, L, R, Direccional de botones, 2 botones analógicos, Home, select, start y reset 4 leds indicadores: Gamepad, media, ICADE, Charge Soporta PC 300 mA ba","neighborhood":null,"imagesCount":1,"imageColor":"#E8F6FF","isFeatured":false,"price":{"amount":689,"displayPrice":"$689","preCurrency":"$","postCurrency":""},"mediumImage":"https://images01.olx-st.com/ui/50/74/51/37/m_1483450813_6e7d03bde7c16e8f4aa543602bb27776.jpg","imageWidth":1000,"slug":"//cordobacapital.olx.com.ar/ideal-para-reyes-joystick-gamepad-bluetooth-android-ios-oc-nmj7024-iid-920053515","highlighted":false,"paidBumpUp":false,"thumbnail":"https://images01.olx-st.com/ui/50/74/51/37/t_1483450813_6e7d03bde7c16e8f4aa543602bb27776.jpg","id":920053515,"condition":null,"date":{"year":2017,"month":3,"day":30,"hour":7,"minute":46,"second":0,"timestamp":"2017-03-30T07:46:00","timezone":"Z"},"simplifiedCategory":"","fullImage":"https://images01.olx-st.com/ui/50/74/51/37/o_1483450813_6e7d03bde7c16e8f4aa543602bb27776.jpg","isSold":false,"titleCustom":"","category":{"id":802,"parentId":800},"optionals":[],"title":"Ideal para Reyes!! JOYSTICK GAMEPAD BLUETOOTH ANDROID IOS OC NMJ7024","imageHeight":1000,"sold":false,"distance":null},{"coordinates":{"latitude":-34.583,"longitude":-58.447},"displayLocation":"Capital Federal","priceTypeData":{"type":"","displayPriceType":""},"additionalLocation":null,"seo":null,"description":"Desarrollo a medida de aplicaciones móbiles para Android , iPhone y iPad. Nuestro equipo se especializa en el desarrollo de soluciones móviles a medida de nuestros clientes. Contamos con juegos, tomas de datos, encuestas, trivias, control de acceso, y otros. Tenemos amplia expertiz en Android, IOs y","neighborhood":null,"imagesCount":1,"imageColor":"#CCDD77","isFeatured":false,"price":null,"mediumImage":"https://images01.olx-st.com/ui/56/31/86/80/m_1482768367_c884edbf887c59b0719002b1ff1ef816.png","imageWidth":800,"slug":"//capitalfederal.olx.com.ar/desarrollo-apps-android-ios-java-aplicaciones-de-software-a-medida-iid-919181953","highlighted":false,"paidBumpUp":false,"thumbnail":"https://images01.olx-st.com/ui/56/31/86/80/t_1482768367_c884edbf887c59b0719002b1ff1ef816.png","id":919181953,"condition":null,"date":{"year":2017,"month":3,"day":27,"hour":8,"minute":16,"second":10,"timestamp":"2017-03-27T08:16:10","timezone":"Z"},"simplifiedCategory":"","fullImage":"https://images01.olx-st.com/ui/56/31/86/80/o_1482768367_c884edbf887c59b0719002b1ff1ef816.png","isSold":false,"titleCustom":"","category":{"id":207,"parentId":191},"optionals":[],"title":"Desarrollo Apps Android IOS Java Aplicaciones De Software a medida.","imageHeight":800,"sold":false,"distance":null},{"coordinates":{"latitude":-34.526,"longitude":-58.536},"displayLocation":"Vicente López","priceTypeData":{"type":"FIXED","displayPriceType":"Fixed Price"},"additionalLocation":null,"seo":null,"description":"Localizador rastreador para colocar en llaveros, carteras, mascotas, etc con sistema de alarma que te ayuda a ubicar los objetos que creias perdidos","neighborhood":null,"imagesCount":5,"imageColor":"#FFAAAA","isFeatured":false,"price":{"amount":300,"displayPrice":"$300","preCurrency":"$","postCurrency":""},"mediumImage":"https://images01.olx-st.com/ui/55/82/31/71/m_1481308376_e3a4593d1794b191618d21a1458d4815.jpg","imageWidth":800,"slug":"//vicentelopez.olx.com.ar/localizador-rastreador-portatil-bluetooth-android-ios-iid-917061064","highlighted":false,"paidBumpUp":false,"thumbnail":"https://images01.olx-st.com/ui/55/82/31/71/t_1481308376_e3a4593d1794b191618d21a1458d4815.jpg","id":917061064,"condition":null,"date":{"year":2017,"month":3,"day":22,"hour":11,"minute":9,"second":59,"timestamp":"2017-03-22T11:09:59","timezone":"Z"},"simplifiedCategory":"","fullImage":"https://images01.olx-st.com/ui/55/82/31/71/o_1481308376_e3a4593d1794b191618d21a1458d4815.jpg","isSold":false,"titleCustom":"","category":{"id":818,"parentId":815},"optionals":[],"title":"Localizador, rastreador portàtil, bluetooth, android, ios","imageHeight":800,"sold":false,"distance":null},{"coordinates":{"latitude":-31.611,"longitude":-60.697},"displayLocation":"Santa Fe","priceTypeData":{"type":"FIXED","displayPriceType":"Fixed Price"},"additionalLocation":null,"seo":null,"description":"Equipamiento X-Rite para Gestión del Color i1 PUBLISH PRO 2 + Brazo AUTOMÁTICO Accesorio i1iO + Software X-rite ¿Sos DISEÑADOR GRÁFICO, IMPRENTERO, ARQUITECTO, FOTOGRAFO, PUBLICISTA, o COLORISTA DE MEDIOS GRÁFICOS O ALGUIEN QUE TRABAJA CON COLOR (TEXTIL, PAPEL, CERÁMICA, ETC.)? ¿Estás cansado que lo","neighborhood":null,"imagesCount":6,"imageColor":"#FFEE77","isFeatured":false,"price":{"amount":64999,"displayPrice":"$64.999","preCurrency":"$","postCurrency":""},"mediumImage":"https://images01.olx-st.com/ui/55/09/01/14/m_1479927247_3f607bff73abd05dfa06300824cc70bf.jpg","imageWidth":4000,"slug":"//santafecapital.olx.com.ar/xrite-p-gestion-del-color-i1-publish-pro-2-brazo-automatico-i1io-iid-914683047","highlighted":false,"paidBumpUp":false,"thumbnail":"https://images01.olx-st.com/ui/55/09/01/14/t_1479927247_3f607bff73abd05dfa06300824cc70bf.jpg","id":914683047,"condition":null,"date":{"year":2017,"month":3,"day":27,"hour":10,"minute":34,"second":21,"timestamp":"2017-03-27T10:34:21","timezone":"Z"},"simplifiedCategory":"","fullImage":"https://images01.olx-st.com/ui/55/09/01/14/o_1479927247_3f607bff73abd05dfa06300824cc70bf.jpg","isSold":false,"titleCustom":"","category":{"id":939,"parentId":938},"optionals":[],"title":"Xrite P/gestión Del Color I1 Publish Pro 2 Brazo Automático i1iO","imageHeight":3000,"sold":false,"distance":null},{"coordinates":{"latitude":-41.133,"longitude":-71.286},"displayLocation":"San Carlos de Bariloche","priceTypeData":{"type":"NEGOTIABLE","displayPriceType":"Negotiable"},"additionalLocation":null,"seo":null,"description":"OPORTUNUDAD SEMANA TIEMPO COMPARTIDO EN BARILOCHE AVENIDA BUSTILOO 7800 PLAYA BONITA. COMPLEJO 5 ESTRELLAS. SEMANA DEL 17 AL 24 DE DICIEMBRE PARA 4 PERSONAS $ 8000.-","neighborhood":null,"imagesCount":7,"imageColor":"#84C8E8","isFeatured":false,"price":{"amount":8000,"displayPrice":"$8.000","preCurrency":"$","postCurrency":""},"mediumImage":"https://images01.olx-st.com/ui/51/04/20/12/m_1479774168_e0f9f3a3a4bfa794bdb131f47c7cc2d7.jpg","imageWidth":199,"slug":"//bariloche.olx.com.ar/semana-tiempo-compartido-en-alquiler-apart-del-lago-bariloche-io-negro-iid-914390669","highlighted":false,"paidBumpUp":false,"thumbnail":"https://images01.olx-st.com/ui/51/04/20/12/t_1479774168_e0f9f3a3a4bfa794bdb131f47c7cc2d7.jpg","id":914390669,"condition":null,"date":{"year":2016,"month":11,"day":21,"hour":21,"minute":45,"second":28,"timestamp":"2016-11-21T21:45:28","timezone":"Z"},"simplifiedCategory":"","fullImage":"https://images01.olx-st.com/ui/51/04/20/12/o_1479774168_e0f9f3a3a4bfa794bdb131f47c7cc2d7.jpg","isSold":false,"titleCustom":"","category":{"id":388,"parentId":16},"optionals":[{"name":"bedrooms","label":"Dormitorios","id":"1","value":"1"},{"name":"surface","label":"Metros Cuadrados","value":"50"},{"name":"flo","label":"","value":"opt-2-388-vacational-apartment"}],"title":"SEMANA TIEMPO COMPARTIDO EN ALQUILER APART DEL LAGO BARILOCHE IO NEGRO","imageHeight":135,"sold":false,"distance":null},{"coordinates":{"latitude":-38.001,"longitude":-57.555},"displayLocation":"Mar del Plata","priceTypeData":{"type":"FIXED","displayPriceType":"Fixed Price"},"additionalLocation":null,"seo":null,"description":"PRODUCTO NUEVO EN SU CAJA ORIGINAL CON ACCESORIOS Y GARANTIA. -MAS DE 20 AÑOS NOS RESPALDAN -SOS COMPUTACION AV COLON 3102 SUCURSAL RIVADAVIA 2680 GALERIA RIVADAVIA LOCAL 21 -PRECIO CONTADO EFECTIVO -CONSULTE PLANES CON TODAS LAS TARJETAS DE CREDITO -CONSULTE MAS MODELOS -WHATSAPP 0223 4383391 -TELE","neighborhood":null,"imagesCount":1,"imageColor":"#9955FF","isFeatured":false,"price":{"amount":1399,"displayPrice":"$1.399","preCurrency":"$","postCurrency":""},"mediumImage":"https://images01.olx-st.com/ui/56/08/77/14/m_1478639002_1cfe3a723674347a0f3ec87d684d96d0.jpg","imageWidth":458,"slug":"//mardelplata.olx.com.ar/chromecast-segunda-generacion-original-google-wifi-dlna-miracast-airplay-android-ios-iid-912361586","highlighted":false,"paidBumpUp":false,"thumbnail":"https://images01.olx-st.com/ui/56/08/77/14/t_1478639002_1cfe3a723674347a0f3ec87d684d96d0.jpg","id":912361586,"condition":null,"date":{"year":2017,"month":3,"day":13,"hour":18,"minute":36,"second":16,"timestamp":"2017-03-13T18:36:16","timezone":"Z"},"simplifiedCategory":"","fullImage":"https://images01.olx-st.com/ui/56/08/77/14/o_1478639002_1cfe3a723674347a0f3ec87d684d96d0.jpg","isSold":false,"titleCustom":"","category":{"id":805,"parentId":800},"optionals":[],"title":"CHROMECAST SEGUNDA GENERACION ORIGINAL GOOGLE WIFI DLNA MIRACAST AIRPLAY ANDROID IOS","imageHeight":458,"sold":false,"distance":null},{"coordinates":{"latitude":-38.004,"longitude":-57.565},"displayLocation":"Mar del Plata","priceTypeData":{"type":"FIXED","displayPriceType":"Fixed Price"},"additionalLocation":null,"seo":null,"description":"GeoVision accesorios, GV-IO, Caja, entrada digital de 8 puntos y el controlador de salida digital de 16 puntos para su GeoVision seguridad CCTV Vigilancia Digital Video Recorder.","neighborhood":null,"imagesCount":1,"imageColor":"#EEFFCC","isFeatured":false,"price":{"amount":599,"displayPrice":"$599","preCurrency":"$","postCurrency":""},"mediumImage":"https://images01.olx-st.com/ui/51/84/57/09/m_1467202448_89ec5b6bb84c98450dbd76ceacbf42e9.jpg","imageWidth":512,"slug":"//mardelplata.olx.com.ar/gv-io-externa-geovision-iid-889049598","highlighted":false,"paidBumpUp":false,"thumbnail":"https://images01.olx-st.com/ui/51/84/57/09/t_1467202448_89ec5b6bb84c98450dbd76ceacbf42e9.jpg","id":889049598,"condition":null,"date":{"year":2017,"month":3,"day":13,"hour":8,"minute":25,"second":13,"timestamp":"2017-03-13T08:25:13","timezone":"Z"},"simplifiedCategory":"","fullImage":"https://images01.olx-st.com/ui/51/84/57/09/o_1467202448_89ec5b6bb84c98450dbd76ceacbf42e9.jpg","isSold":false,"titleCustom":"","category":{"id":804,"parentId":800},"optionals":[],"title":"GV IO EXTERNA GEOVISION","imageHeight":512,"sold":false,"distance":null},{"coordinates":{"latitude":-34.583,"longitude":-58.434},"displayLocation":"Capital Federal","priceTypeData":{"type":"FIXED","displayPriceType":"Fixed Price"},"additionalLocation":null,"seo":null,"description":"Color Blanco Características del U8: 1. Pasa música en tu celular 2. Marca y responde llamadas 3. Sincronizado con los contactos del teléfono, muestra el número y el nombre de los que llaman 4. Suena cuando recibís una llamada 5. Anti-pérdida: suena o vibra cuando el reloj está a cierta distancia de","neighborhood":null,"imagesCount":5,"imageColor":"#BBDDEE","isFeatured":false,"price":{"amount":370,"displayPrice":"$370","preCurrency":"$","postCurrency":""},"mediumImage":"https://images01.olx-st.com/ui/53/66/01/83/m_1477488470_65745e904dabdcf416913b2d7d728dcc.jpg","imageWidth":347,"slug":"//capitalfederal.olx.com.ar/reloj-inteligente-blanco-smartwatch-bluetooth-para-android-ios-iid-910291976","highlighted":false,"paidBumpUp":true,"thumbnail":"https://images01.olx-st.com/ui/53/66/01/83/t_1477488470_65745e904dabdcf416913b2d7d728dcc.jpg","id":910291976,"condition":null,"date":{"year":2016,"month":10,"day":31,"hour":10,"minute":30,"second":47,"timestamp":"2016-10-31T10:30:47","timezone":"Z"},"simplifiedCategory":"","fullImage":"https://images01.olx-st.com/ui/53/66/01/83/o_1477488470_65745e904dabdcf416913b2d7d728dcc.jpg","isSold":false,"titleCustom":"","category":{"id":818,"parentId":815},"optionals":[],"title":"Reloj Inteligente Blanco Smartwatch Bluetooth Para Android / Ios","imageHeight":500,"sold":false,"distance":null}],"metadata":{"next":"/items?location=www.olx.com.ar&pageSize=15&searchTerm=Ios&offset=45","total":46,"filters":[{"name":"state","description":"State","type":"SELECT","value":[{"id":"capitalfederal-gba.olx.com.ar","value":"Capital Federal y GBA","count":16},{"id":"cordoba.olx.com.ar","value":"Córdoba","count":9},{"id":"buenosaires.olx.com.ar","value":"Buenos Aires","count":7},{"id":"santafe.olx.com.ar","value":"Santa Fe","count":3},{"id":"corrientes.olx.com.ar","value":"Corrientes","count":2},{"id":"entrerios.olx.com.ar","value":"Entre Ríos","count":2},{"id":"misiones.olx.com.ar","value":"Misiones","count":2},{"id":"mendoza.olx.com.ar","value":"Mendoza","count":1},{"id":"neuquen.olx.com.ar","value":"Neuquén","count":1},{"id":"rionegro.olx.com.ar","value":"Río Negro","count":1},{"id":"salta.olx.com.ar","value":"Salta","count":1},{"id":"tucuman.olx.com.ar","value":"Tucumán","count":1}],"modifier":""},{"name":"hasimage","description":"With Photos","type":"BOOLEAN","value":[{"id":"true","value":null,"count":46}],"modifier":""},{"name":"parentcategory","description":"Category","type":"SELECT","value":[{"id":"800","value":"Electrónica","count":11,"children":{"name":"category","description":"Category","type":"SELECT","value":[{"id":"805","value":"TV - Audio - Video","count":5},{"id":"802","value":"Videojuegos - Consolas","count":4},{"id":"804","value":"Cámaras y accesorios","count":2}],"modifier":""}},{"id":"362","value":"Vehículos","count":10,"children":{"name":"category","description":"Category","type":"SELECT","value":[{"id":"378","value":"Autos","count":8},{"id":"377","value":"Accesorios para Autos","count":2}],"modifier":""}},{"id":"830","value":"Teléfonos - Tablets","count":10,"children":{"name":"category","description":"Category","type":"SELECT","value":[{"id":"832","value":"Accesorios para celulares","count":6},{"id":"831","value":"Celulares - Teléfonos","count":3},{"id":"857","value":"Tablets","count":1}],"modifier":""}},{"id":"815","value":"Moda y Belleza","count":4,"children":{"name":"category","description":"Category","type":"SELECT","value":[{"id":"818","value":"Relojes - Joyas - Accesorios","count":4}],"modifier":""}},{"id":"16","value":"Propiedades - Inmuebles","count":3,"children":{"name":"category","description":"Category","type":"SELECT","value":[{"id":"388","value":"Alojamiento vacacional - ALQUILER","count":2},{"id":"367","value":"Departamentos - Casas - VENTA","count":1}],"modifier":""}},{"id":"191","value":"Servicios","count":3,"children":{"name":"category","description":"Category","type":"SELECT","value":[{"id":"207","value":"Otros Servicios","count":2},{"id":"198","value":"Reparaciones - Técnicos","count":1}],"modifier":""}},{"id":"806","value":"Hogar - Muebles - Jardín","count":2,"children":{"name":"category","description":"Category","type":"SELECT","value":[{"id":"807","value":"Muebles","count":2}],"modifier":""}},{"id":"938","value":"Herramientas, Industria y Oficina","count":2,"children":{"name":"category","description":"Category","type":"SELECT","value":[{"id":"939","value":"Industria","count":1},{"id":"941","value":"Herramientas","count":1}],"modifier":""}},{"id":"811","value":"Animales y Mascotas","count":1,"children":{"name":"category","description":"Category","type":"SELECT","value":[{"id":"812","value":"Perros - Gatos","count":1}],"modifier":""}}],"modifier":""},{"name":"pricerange","description":"Price","type":"RANGE","value":[{"id":"from","value":"Min","count":0},{"id":"to","value":"Max","count":0}],"modifier":""}],"filtersOrder":["viewOptions","locationLevel","sortBy","parentcategory","category","flo","slo","pricerange","state","city","directdistancedialing","neighborhood"],"seo":null,"abundance":null}}
